Data Visualization in R with ggplot2
…
<img src="presentation_files/figure-html/unnamed-chunk-38-1.png" width="50%" style="display: block; margin: auto;" />
---
### Investigating the data
What are the NA's?

```r
nobel_winners  %>% filter(is.na(gender))  %>% select(full_name)
```

```
## # A tibble: 26 x 1
##    full_name                                                               
##    <chr>                                                                   
##  1 Institut de droit international (Institute of International Law)        
##  2 Bureau international permanent de la Paix (Permanent International Peac…
##  3 Comité international de la Croix Rouge (International Committee of the …
##  4 Office international Nansen pour les Réfugiés (Nansen International Off…
##  5 Comité international de la Croix Rouge (International Committee of the …
##  6 Friends Service Council (The Quakers)                                   
##  7 American Friends Service Committee (The Quakers)                        
##  8 Office of the United Nations High Commissioner for Refugees (UNHCR)     
##  9 Comité international de la Croix Rouge (International Committee of the …
## 10 Ligue des Sociétés de la Croix-Rouge (League of Red Cross Societies)    
## # … with 16 more rows
```
…
